(kicad_symbol_lib (version 20210619) (generator kicad_symbol_editor)
  (symbol "EPROM:Am27C400" (in_bom yes) (on_board yes)
    (property "Reference" "U" (id 0) (at 0 28.956 0)
      (effects (font (size 1.27 1.27)))
    )
    (property "Value" "Am27C400" (id 1) (at 0 -29.718 0)
      (effects (font (size 1.27 1.27)))
    )
    (property "Footprint" "Package_DIP:DIP-40_W15.24mm_Socket_LongPads" (id 2) (at 0 0 0)
      (effects (font (size 1.27 1.27)) hide)
    )
    (property "Datasheet" "" (id 3) (at 0 0 0)
      (effects (font (size 1.27 1.27)) hide)
    )
    (symbol "Am27C400_0_0"
      (pin input line (at -10.16 -16.51 0) (length 2.54)
        (name "A17" (effects (font (size 1.27 1.27))))
        (number "1" (effects (font (size 1.27 1.27))))
      )
      (pin power_in line (at 10.16 -24.13 180) (length 2.54)
        (name "Vss" (effects (font (size 1.27 1.27))))
        (number "11" (effects (font (size 1.27 1.27))))
      )
      (pin input inverted (at -10.16 -24.13 0) (length 2.54)
        (name "OE" (effects (font (size 1.27 1.27))))
        (number "12" (effects (font (size 1.27 1.27))))
      )
      (pin output line (at 10.16 6.35 180) (length 2.54)
        (name "DQ8" (effects (font (size 1.27 1.27))))
        (number "14" (effects (font (size 1.27 1.27))))
      )
      (pin output line (at 10.16 24.13 180) (length 2.54)
        (name "DQ1" (effects (font (size 1.27 1.27))))
        (number "15" (effects (font (size 1.27 1.27))))
      )
      (pin output line (at 10.16 3.81 180) (length 2.54)
        (name "DQ9" (effects (font (size 1.27 1.27))))
        (number "16" (effects (font (size 1.27 1.27))))
      )
      (pin output line (at 10.16 21.59 180) (length 2.54)
        (name "DQ2" (effects (font (size 1.27 1.27))))
        (number "17" (effects (font (size 1.27 1.27))))
      )
      (pin output line (at 10.16 1.27 180) (length 2.54)
        (name "DQ10" (effects (font (size 1.27 1.27))))
        (number "18" (effects (font (size 1.27 1.27))))
      )
      (pin output line (at 10.16 19.05 180) (length 2.54)
        (name "DQ3" (effects (font (size 1.27 1.27))))
        (number "19" (effects (font (size 1.27 1.27))))
      )
      (pin input line (at -10.16 8.89 0) (length 2.54)
        (name "A7" (effects (font (size 1.27 1.27))))
        (number "2" (effects (font (size 1.27 1.27))))
      )
      (pin output line (at 10.16 -1.27 180) (length 2.54)
        (name "DQ11" (effects (font (size 1.27 1.27))))
        (number "20" (effects (font (size 1.27 1.27))))
      )
      (pin power_in line (at 10.16 -21.59 180) (length 2.54)
        (name "Vcc" (effects (font (size 1.27 1.27))))
        (number "21" (effects (font (size 1.27 1.27))))
      )
      (pin output line (at 10.16 16.51 180) (length 2.54)
        (name "DQ4" (effects (font (size 1.27 1.27))))
        (number "22" (effects (font (size 1.27 1.27))))
      )
      (pin output line (at 10.16 -3.81 180) (length 2.54)
        (name "DQ12" (effects (font (size 1.27 1.27))))
        (number "23" (effects (font (size 1.27 1.27))))
      )
      (pin output line (at 10.16 13.97 180) (length 2.54)
        (name "DQ5" (effects (font (size 1.27 1.27))))
        (number "24" (effects (font (size 1.27 1.27))))
      )
      (pin output line (at 10.16 -6.35 180) (length 2.54)
        (name "DQ13" (effects (font (size 1.27 1.27))))
        (number "25" (effects (font (size 1.27 1.27))))
      )
      (pin output line (at 10.16 11.43 180) (length 2.54)
        (name "DQ6" (effects (font (size 1.27 1.27))))
        (number "26" (effects (font (size 1.27 1.27))))
      )
      (pin output line (at 10.16 -8.89 180) (length 2.54)
        (name "DQ14" (effects (font (size 1.27 1.27))))
        (number "27" (effects (font (size 1.27 1.27))))
      )
      (pin output line (at 10.16 8.89 180) (length 2.54)
        (name "DQ7" (effects (font (size 1.27 1.27))))
        (number "28" (effects (font (size 1.27 1.27))))
      )
      (pin output line (at 10.16 -11.43 180) (length 2.54)
        (name "DQ15" (effects (font (size 1.27 1.27))))
        (number "29" (effects (font (size 1.27 1.27))))
        (alternate "AB" input line)
      )
      (pin input line (at -10.16 11.43 0) (length 2.54)
        (name "A6" (effects (font (size 1.27 1.27))))
        (number "3" (effects (font (size 1.27 1.27))))
      )
      (pin power_in line (at 10.16 -26.67 180) (length 2.54)
        (name "Vss" (effects (font (size 1.27 1.27))))
        (number "30" (effects (font (size 1.27 1.27))))
      )
      (pin input inverted (at -10.16 -26.67 0) (length 2.54)
        (name "BYTE" (effects (font (size 1.27 1.27))))
        (number "31" (effects (font (size 1.27 1.27))))
        (alternate "Vpp" input line)
      )
      (pin input line (at -10.16 -13.97 0) (length 2.54)
        (name "A16" (effects (font (size 1.27 1.27))))
        (number "32" (effects (font (size 1.27 1.27))))
      )
      (pin input line (at -10.16 -11.43 0) (length 2.54)
        (name "A15" (effects (font (size 1.27 1.27))))
        (number "33" (effects (font (size 1.27 1.27))))
      )
      (pin input line (at -10.16 -8.89 0) (length 2.54)
        (name "A14" (effects (font (size 1.27 1.27))))
        (number "34" (effects (font (size 1.27 1.27))))
      )
      (pin input line (at -10.16 -6.35 0) (length 2.54)
        (name "A13" (effects (font (size 1.27 1.27))))
        (number "35" (effects (font (size 1.27 1.27))))
      )
      (pin input line (at -10.16 -3.81 0) (length 2.54)
        (name "A12" (effects (font (size 1.27 1.27))))
        (number "36" (effects (font (size 1.27 1.27))))
      )
      (pin input line (at -10.16 -1.27 0) (length 2.54)
        (name "A11" (effects (font (size 1.27 1.27))))
        (number "37" (effects (font (size 1.27 1.27))))
      )
      (pin input line (at -10.16 1.27 0) (length 2.54)
        (name "A10" (effects (font (size 1.27 1.27))))
        (number "38" (effects (font (size 1.27 1.27))))
      )
      (pin input line (at -10.16 3.81 0) (length 2.54)
        (name "A9" (effects (font (size 1.27 1.27))))
        (number "39" (effects (font (size 1.27 1.27))))
      )
      (pin input line (at -10.16 13.97 0) (length 2.54)
        (name "A5" (effects (font (size 1.27 1.27))))
        (number "4" (effects (font (size 1.27 1.27))))
      )
      (pin input line (at -10.16 6.35 0) (length 2.54)
        (name "A8" (effects (font (size 1.27 1.27))))
        (number "40" (effects (font (size 1.27 1.27))))
      )
      (pin input line (at -10.16 16.51 0) (length 2.54)
        (name "A4" (effects (font (size 1.27 1.27))))
        (number "5" (effects (font (size 1.27 1.27))))
      )
      (pin input line (at -10.16 19.05 0) (length 2.54)
        (name "A3" (effects (font (size 1.27 1.27))))
        (number "6" (effects (font (size 1.27 1.27))))
      )
      (pin input line (at -10.16 21.59 0) (length 2.54)
        (name "A2" (effects (font (size 1.27 1.27))))
        (number "7" (effects (font (size 1.27 1.27))))
      )
      (pin input line (at -10.16 24.13 0) (length 2.54)
        (name "A1" (effects (font (size 1.27 1.27))))
        (number "8" (effects (font (size 1.27 1.27))))
      )
    )
    (symbol "Am27C400_0_1"
      (rectangle (start -7.62 27.94) (end 7.62 -27.94)
        (stroke (width 0.1524)) (fill (type background))
      )
    )
    (symbol "Am27C400_1_1"
      (pin input inverted (at -10.16 -21.59 0) (length 2.54)
        (name "CE" (effects (font (size 1.27 1.27))))
        (number "10" (effects (font (size 1.27 1.27))))
        (alternate "PGM" input inverted)
      )
      (pin output line (at 10.16 26.67 180) (length 2.54)
        (name "DQ0" (effects (font (size 1.27 1.27))))
        (number "13" (effects (font (size 1.27 1.27))))
      )
      (pin input line (at -10.16 26.67 0) (length 2.54)
        (name "A0" (effects (font (size 1.27 1.27))))
        (number "9" (effects (font (size 1.27 1.27))))
      )
    )
  )
)
